X1 - X2 =< 1
X1 - X7 =< 3
X1 - X3 =< 9
X1 - X4 =< 1
X2 - X3 =< 10
X2 - X7 =< 31
X2 - X5 =< 10
X2 - X4 =< 4
X3 - X4 =< -2
X3 - X6 =< -1
X3 - X8 =< 17
X3 - X2 =< 20
X4 - X1 =< 10
X4 - X5 =< 15
X4 - X6 =< 19
X4 - X7 =< 20
X5 - X8 =< -1
X5 - X1 =< 43
X5 - X2 =< 76
X5 - X6 =< 54
X6 - X1 =< 10
X6 - X7 =< 11
X6 - X8 =< 5
X6 - X9 =< -1
X7 - X9 =< -2
X7 - X1 =< 42
X7 - X10 =< 8
X7 - X2 =< 74
X8 - X9 =< 3
X8 - X1 =< 14
X8 - X4 =< 29
X8 - X3 =< 19
X9 - X1 =< 20
X9 - X3 =< 7
X9 - X4 =< 6
X9 - X8 =< 3
X10 - X4 =< 23
X10 - X5 =< 19
X10 - X9 =< -3
X10 - X8 =< 20